Homework #4
…
This graph shows that diet 3 is the best one for weight gain in the chicks with the largest median value. This also shows that the most consistent weight gain diet would be 4 since there isnt a large distribution of weightgain values.

5.) Answer the following question using numerical and graphical summary: Which chick gained the most weight and which gained the least weight? What diets were they on?

data1

## # A tibble: 45 x 5
## # Groups:   Chick [45]
##    weight  Time Chick Diet  weightgain
##     <dbl> <dbl> <ord> <fct>      <dbl>
##  1    205    21 1     1            163
##  2    215    21 2     1            175
##  3    202    21 3     1            159
##  4    157    21 4     1            115
##  5    223    21 5     1            182
##  6    157    21 6     1            116
##  7    305    21 7     1            264
##  8     98    21 9     1             56
##  9    124    21 10    1             83
## 10    175    21 11    1            132
## #  with 35 more rows
…
